Chapitre 9 - do you dplyr ?
…
library(tidyverse)

Nous allons désormais utilisés les sortilèges apportés par dplyr pour étudier le registre des naissances.

De nouvelles fonctions apportées par dplyr

La manipulation de données avec dplyr se fait en utilisant de nouvelles fonctions, qui correspondent chacun à une action différente appliquée à un tableau de données.

Les fonctions filter() et arrange()

La fonction filter() sélectionne des lignes d’une table selon la condition que vous choisissez. Par exemple, si vous voulez filtrer les données de naissance selon le village de naissance :

filter(naissances, Village == "Kokoro")
## # A tibble: 29 x 8
##    Nom      Genre Village    An Taille Poids Force Spirit
##    <chr>    <chr> <chr>   <dbl>  <dbl> <dbl> <dbl>  <dbl>
##  1 Aelia    F     Kokoro   1211     46  2990    24     22
##  2 Angus    H     Kokoro   1212     51  3440    29     22
##  3 Cipria   F     Kokoro   1212     50  3240    22     28
##  4 Zilap    H     Kokoro   1212     51  3030    28     23
##  5 Aitor    H     Kokoro   1212     47  3380    27     20
##  6 Alcor    H     Kokoro   1213     45  3820    27     18
##  7 Actarus  H     Kokoro   1212     52  3360    27     30
##  8 Phenicia F     Kokoro   1213     51  3000    22     29
##  9 Angus    H     Kokoro   1211     54  3910    26     28
## 10 Cipria   F     Kokoro   1211     43  2960    22     21
## # ... with 19 more rows
…
La fonction arrange() réordonne les lignes d’un tableau selon une ou plusieurs colonnes. Ainsi, si on veut trier le tableau des naissances selon la taille des nourrissons :

arrange(naissances, Taille)
## # A tibble: 110 x 8
##    Nom      Genre Village     An Taille Poids Force Spirit
##    <chr>    <chr> <chr>    <dbl>  <dbl> <dbl> <dbl>  <dbl>
##  1 Lucia    F     Kokoro    1212     42  3430    21     21
##  2 Phenicia F     Euphor    1213     42  3130    21     21
##  3 Phenicia F     Hylia     1212     42  2890    22     20
##  4 Lucia    F     Euphor    1212     43  3310    21     22
##  5 Flavia   F     Sandia    1211     43  3270    20     23
##  6 Cipria   F     Kokoro    1211     43  2960    22     21
##  7 Mircea   F     Hylia     1211     43  2810    24     19
##  8 Flavia   F     Euphor    1212     43  3250    25     18
##  9 Mircea   F     Sandia    1212     43  3070    22     21
## 10 Aelia    F     Hortusus  1212     43  3400    22     21
## # ... with 100 more rows

On peut trier selon plusieurs colonnes. Par exemple selon le village puis la taille :

arrange(naissances, Village, Taille)
## # A tibble: 110 x 8
##    Nom       Genre Village    An Taille Poids Force Spirit
##    <chr>     <chr> <chr>   <dbl>  <dbl> <dbl> <dbl>  <dbl>
##  1 Phenicia  F     Euphor   1213     42  3130    21     21
##  2 Lucia     F     Euphor   1212     43  3310    21     22
##  3 Flavia    F     Euphor   1212     43  3250    25     18
##  4 Phenicia  F     Euphor   1211     44  2910    21     23
##  5 Valentina F     Euphor   1211     47  3470    23     24
##  6 Ignacius  H     Euphor   1213     47  3220    28     19
##  7 Aitor     H     Euphor   1212     48  3150    29     19
##  8 Iunia     F     Euphor   1212     49  3500    24     25
##  9 Phenicia  F     Euphor   1213     49  2830    21     28
## 10 Angus     H     Euphor   1211     49  3480    29     20
## # ... with 100 more rows

Si on veut trier selon une colonne par ordre décroissant, on lui applique la fonction desc(). Illustration en triant les naissances par village puis par taille décroissante du nourrisson.

arrange(naissances, Village, desc(Taille))
## # A tibble: 110 x 8
##    Nom      Genre Village    An Taille Poids Force Spirit
##    <chr>    <chr> <chr>   <dbl>  <dbl> <dbl> <dbl>  <dbl>
##  1 Flavia   F     Euphor   1213     51  3700    21     30
##  2 Isidore  H     Euphor   1211     50  3790    28     22
##  3 Darius   H     Euphor   1212     50  3890    28     22
##  4 Darius   H     Euphor   1212     50  3210    28     22
##  5 Ignacius H     Euphor   1211     50  3410    28     22
##  6 Iunia    F     Euphor   1212     49  3500    24     25
##  7 Phenicia F     Euphor   1213     49  2830    21     28
##  8 Angus    H     Euphor   1211     49  3480    29     20
##  9 Darius   H     Euphor   1212     49  3990    26     23
## 10 Isidore  H     Euphor   1211     49  3200    29     20
## # ... with 100 more rows
…
# fin de l'exercice

La fonction mutate()

La fonction mutate() permet de créer de nouvelles colonnes dans le tableau de données, en général à partir de variables existantes. Par exemple, la table naissances contient à la fois la taille et le poids des nourrissons. Par exemple, créons une nouvelle variable Ratio qui mesure leur indice de masse corporelle comme le ratio entre la Taille et le Poids au carré :

naissances <- mutate(naissances, Ratio = Taille / Poids^2)

On peut ensuite afficher la liste des naissances rangée selon le Ratio:

arrange(naissances,Ratio)
## # A tibble: 110 x 9
##    Nom     Genre Village     An Taille Poids Force Spirit      Ratio
##    <chr>   <chr> <chr>    <dbl>  <dbl> <dbl> <dbl>  <dbl>      <dbl>
##  1 Isidore H     Hylia     1212     46  3980    27     19 0.00000290
##  2 Isidore H     Hylia     1212     46  3880    26     20 0.00000306
##  3 Darius  H     Euphor    1212     49  3990    26     23 0.00000308
##  4 Alcor   H     Kokoro    1213     45  3820    27     18 0.00000308
##  5 Zilap   H     Hylia     1211     48  3900    26     22 0.00000316
##  6 Isidore H     Hortusus  1213     51  3990    28     23 0.00000320
##  7 Darius  H     Hylia     1212     47  3830    26     21 0.00000320
##  8 Darius  H     Euphor    1212     50  3890    28     22 0.00000330
##  9 Flavia  F     Sandia    1213     47  3770    22     25 0.00000331
## 10 Lucia   F     Hylia     1211     44  3630    22     22 0.00000334
## # ... with 100 more rows
…
